HeNe/Gaussian/Fourier Transform/tek0008ALL.csv

Model,MDO34
Firmware Version,1.19.13

Waveform Type,ANALOG
Point Format,Y
Horizontal Units,s
Horizontal Scale,0.02
Horizontal Delay,0
Sample Interval,0.0002
Record Length,1000
Gating,0.1% to 100.0%
Probe Attenuation,1
Vertical Units,V
Vertical Offset,0
Vertical Scale,2
Vertical Position,0
,
,
,
Label,
TIME,CH1
-1.000e-01,2.64
-9.980e-02,2.56
-9.960e-02,2.64
-9.940e-02,2.56
-9.920e-02,2.56
-9.900e-02,2.64
-9.880e-02,2.64
-9.860e-02,2.64
-9.840e-02,2.64
-9.820e-02,2.72
-9.800e-02,2.8
-9.780e-02,2.72
-9.760e-02,2.72
-9.740e-02,2.8
-9.720e-02,2.8
-9.700e-02,2.8
-9.680e-02,2.8
-9.660e-02,2.72
-9.640e-02,2.72
-9.620e-02,2.72
-9.600e-02,2.8
-9.580e-02,2.8
-9.560e-02,2.8
-9.540e-02,2.88
-9.520e-02,2.8
-9.500e-02,2.8
-9.480e-02,2.8
-9.460e-02,2.8
-9.440e-02,2.8
-9.420e-02,2.72
-9.400e-02,2.64
-9.380e-02,2.64
-9.360e-02,2.64
-9.340e-02,2.64
-9.320e-02,2.64
-9.300e-02,2.64
-9.280e-02,2.64
-9.260e-02,2.56
-9.240e-02,2.64
-9.220e-02,2.64
-9.200e-02,2.64
-9.180e-02,2.56
-9.160e-02,2.64
-9.140e-02,2.56
-9.120e-02,2.56
-9.100e-02,2.56
-9.080e-02,2.64
-9.060e-02,2.64
-9.040e-02,2.64
-9.020e-02,2.64
-9.000e-02,2.64
-8.980e-02,2.72
-8.960e-02,2.72
-8.940e-02,2.72
-8.920e-02,2.72
-8.900e-02,2.72
-8.880e-02,2.72
-8.860e-02,2.8
-8.840e-02,2.8
-8.820e-02,2.8
-8.800e-02,2.8
-8.780e-02,2.72
-8.760e-02,2.8
-8.740e-02,2.72
-8.720e-02,2.8
-8.700e-02,2.72
-8.680e-02,2.8
-8.660e-02,2.72
-8.640e-02,2.72
-8.620e-02,2.8
-8.600e-02,2.8
-8.580e-02,2.72
-8.560e-02,2.72
-8.540e-02,2.72
-8.520e-02,2.64
-8.500e-02,2.56
-8.480e-02,2.64
-8.460e-02,2.48
-8.440e-02,2.56
-8.420e-02,2.64
-8.400e-02,2.64
-8.380e-02,2.64
-8.360e-02,2.64
-8.340e-02,2.64
-8.320e-02,2.56
-8.300e-02,2.56
-8.280e-02,2.64
-8.260e-02,2.64
-8.240e-02,2.72
-8.220e-02,2.64
-8.200e-02,2.72
-8.180e-02,2.72
-8.160e-02,2.64
-8.140e-02,2.72
-8.120e-02,2.72
-8.100e-02,2.72
-8.080e-02,2.72
-8.060e-02,2.72
-8.040e-02,2.72
-8.020e-02,2.8
-8.000e-02,2.8
-7.980e-02,2.8
-7.960e-02,2.8
-7.940e-02,2.8
-7.920e-02,2.8
-7.900e-02,2.8
-7.880e-02,2.72
-7.860e-02,2.8
-7.840e-02,2.8
-7.820e-02,2.8
-7.800e-02,2.8
-7.780e-02,2.72
-7.760e-02,2.8
-7.740e-02,2.72
-7.720e-02,2.72
-7.700e-02,2.64
-7.680e-02,2.64
-7.660e-02,2.64
-7.640e-02,2.64
-7.620e-02,2.64
-7.600e-02,2.64
-7.580e-02,2.64
-7.560e-02,2.64
-7.540e-02,2.64
-7.520e-02,2.64
-7.500e-02,2.64
-7.480e-02,2.64
-7.460e-02,2.64
-7.440e-02,2.56
-7.420e-02,2.72
-7.400e-02,2.64
-7.380e-02,2.64
-7.360e-02,2.64
-7.340e-02,2.64
-7.320e-02,2.72
-7.300e-02,2.8
-7.280e-02,2.8
-7.260e-02,2.8
-7.240e-02,2.8
-7.220e-02,2.72
-7.200e-02,2.8
-7.180e-02,2.8
-7.160e-02,2.72
-7.140e-02,2.8
-7.120e-02,2.8
-7.100e-02,2.8
-7.080e-02,2.8
-7.060e-02,2.96
-7.040e-02,2.8
-7.020e-02,2.8
-7.000e-02,2.8
-6.980e-02,2.72
-6.960e-02,2.72
-6.940e-02,2.88
-6.920e-02,2.88
-6.900e-02,2.8
-6.880e-02,2.72
-6.860e-02,2.64
-6.840e-02,2.72
-6.820e-02,2.56
-6.800e-02,2.64
-6.780e-02,2.64
-6.760e-02,2.64
-6.740e-02,2.72
-6.720e-02,2.72
-6.700e-02,2.64
-6.680e-02,2.64
-6.660e-02,2.64
-6.640e-02,2.64
-6.620e-02,2.64
-6.600e-02,2.64
-6.580e-02,2.64
-6.560e-02,2.72
-6.540e-02,2.72
-6.520e-02,2.72
-6.500e-02,2.72
-6.480e-02,2.72
-6.460e-02,2.8
-6.440e-02,2.72
-6.420e-02,2.8
-6.400e-02,2.8
-6.380e-02,2.72
-6.360e-02,2.72
-6.340e-02,2.8
-6.320e-02,2.8
-6.300e-02,2.88
-6.280e-02,2.88
-6.260e-02,2.8
-6.240e-02,2.88
-6.220e-02,2.8
-6.200e-02,2.8
-6.180e-02,2.8
-6.160e-02,2.8
-6.140e-02,2.8
-6.120e-02,2.8
-6.100e-02,2.8
-6.080e-02,2.72
-6.060e-02,2.72
-6.040e-02,2.72
-6.020e-02,2.64
-6.000e-02,2.64
-5.980e-02,2.72
-5.960e-02,2.64
-5.940e-02,2.64
-5.920e-02,2.64
-5.900e-02,2.72
-5.880e-02,2.64
-5.860e-02,2.64
-5.840e-02,2.64
-5.820e-02,2.64
-5.800e-02,2.64
-5.780e-02,2.64
-5.760e-02,2.72
-5.740e-02,2.64
-5.720e-02,2.64
-5.700e-02,2.72
-5.680e-02,2.64
-5.660e-02,2.72
-5.640e-02,2.8
-5.620e-02,2.72
-5.600e-02,2.72
-5.580e-02,2.72
-5.560e-02,2.8
-5.540e-02,2.8
-5.520e-02,2.8
-5.500e-02,2.8
-5.480e-02,2.88
-5.460e-02,2.88
-5.440e-02,2.88
-5.420e-02,2.88
-5.400e-02,2.88
-5.380e-02,2.88
-5.360e-02,2.8
-5.340e-02,2.88
-5.320e-02,2.8
-5.300e-02,2.8
-5.280e-02,2.8
-5.260e-02,2.8
-5.240e-02,2.72
-5.220e-02,2.72
-5.200e-02,2.72
-5.180e-02,2.64
-5.160e-02,2.64
-5.140e-02,2.56
-5.120e-02,2.72
-5.100e-02,2.64
-5.080e-02,2.64
-5.060e-02,2.72
-5.040e-02,2.72
-5.020e-02,2.64
-5.000e-02,2.64
-4.980e-02,2.64
-4.960e-02,2.64
-4.940e-02,2.64
-4.920e-02,2.64
-4.900e-02,2.72
-4.880e-02,2.72
-4.860e-02,2.72
-4.840e-02,2.72
-4.820e-02,2.72
-4.800e-02,2.72
-4.780e-02,2.8
-4.760e-02,2.72
-4.740e-02,2.72
-4.720e-02,2.8
-4.700e-02,2.8
-4.680e-02,2.8
-4.660e-02,2.88
-4.640e-02,2.88
-4.620e-02,2.8
-4.600e-02,2.88
-4.580e-02,2.88
-4.560e-02,2.88
-4.540e-02,2.8
-4.520e-02,2.8
-4.500e-02,2.72
-4.480e-02,2.8
-4.460e-02,2.8
-4.440e-02,2.8
-4.420e-02,2.8
-4.400e-02,2.72
-4.380e-02,2.72
-4.360e-02,2.72
-4.340e-02,2.64
-4.320e-02,2.72
-4.300e-02,2.72
-4.280e-02,2.72
-4.260e-02,2.72
-4.240e-02,2.72
-4.220e-02,2.72
-4.200e-02,2.72
-4.180e-02,2.72
-4.160e-02,2.72
-4.140e-02,2.72
-4.120e-02,2.64
-4.100e-02,2.64
-4.080e-02,2.72
-4.060e-02,2.64
-4.040e-02,2.72
-4.020e-02,2.72
-4.000e-02,2.8
-3.980e-02,2.72
-3.960e-02,2.8
-3.940e-02,2.8
-3.920e-02,2.8
-3.900e-02,2.8
-3.880e-02,2.8
-3.860e-02,2.88
-3.840e-02,2.88
-3.820e-02,2.88
-3.800e-02,2.88
-3.780e-02,2.88
-3.760e-02,2.8
-3.740e-02,2.8
-3.720e-02,2.88
-3.700e-02,2.8
-3.680e-02,2.88
-3.660e-02,2.8
-3.640e-02,2.8
-3.620e-02,2.8
-3.600e-02,2.8
-3.580e-02,2.88
-3.560e-02,2.8
-3.540e-02,2.8
-3.520e-02,2.64
-3.500e-02,2.72
-3.480e-02,2.72
-3.460e-02,2.64
-3.440e-02,2.64
-3.420e-02,2.72
-3.400e-02,2.8
-3.380e-02,2.72
-3.360e-02,2.64
-3.340e-02,2.72
-3.320e-02,2.64
-3.300e-02,2.64
-3.280e-02,2.64
-3.260e-02,2.64
-3.240e-02,2.72
-3.220e-02,2.72
-3.200e-02,2.8
-3.180e-02,2.8
-3.160e-02,2.8
-3.140e-02,2.8
-3.120e-02,2.8
-3.100e-02,2.8
-3.080e-02,2.88
-3.060e-02,2.88
-3.040e-02,2.88
-3.020e-02,2.88
-3.000e-02,2.88
-2.980e-02,2.88
-2.960e-02,2.8
-2.940e-02,2.88
-2.920e-02,2.96
-2.900e-02,2.88
-2.880e-02,2.96
-2.860e-02,2.8
-2.840e-02,2.88
-2.820e-02,2.88
-2.800e-02,2.88
-2.780e-02,2.88
-2.760e-02,2.88
-2.740e-02,2.8
-2.720e-02,2.8
-2.700e-02,2.72
-2.680e-02,2.8
-2.660e-02,2.72
-2.640e-02,2.72
-2.620e-02,2.72
-2.600e-02,2.72
-2.580e-02,2.8
-2.560e-02,2.72
-2.540e-02,2.72
-2.520e-02,2.72
-2.500e-02,2.72
-2.480e-02,2.72
-2.460e-02,2.8
-2.440e-02,2.72
-2.420e-02,2.72
-2.400e-02,2.72
-2.380e-02,2.8
-2.360e-02,2.8
-2.340e-02,2.72
-2.320e-02,2.8
-2.300e-02,2.8
-2.280e-02,2.8
-2.260e-02,2.88
-2.240e-02,2.96
-2.220e-02,2.96
-2.200e-02,2.88
-2.180e-02,2.96
-2.160e-02,2.96
-2.140e-02,2.96
-2.120e-02,2.96
-2.100e-02,2.96
-2.080e-02,3.04
-2.060e-02,2.88
-2.040e-02,2.88
-2.020e-02,2.96
-2.000e-02,2.96
-1.980e-02,2.88
-1.960e-02,2.88
-1.940e-02,2.96
-1.920e-02,2.88
-1.900e-02,2.8
-1.880e-02,2.88
-1.860e-02,2.8
-1.840e-02,2.72
-1.820e-02,2.72
-1.800e-02,2.8
-1.780e-02,2.72
-1.760e-02,2.8
-1.740e-02,2.8
-1.720e-02,2.72
-1.700e-02,2.8
-1.680e-02,2.72
-1.660e-02,2.72
-1.640e-02,2.72
-1.620e-02,2.72
-1.600e-02,2.72
-1.580e-02,2.8
-1.560e-02,2.72
-1.540e-02,2.8
-1.520e-02,2.8
-1.500e-02,2.88
-1.480e-02,2.88
-1.460e-02,2.8
-1.440e-02,2.96
-1.420e-02,2.88
-1.400e-02,2.88
-1.380e-02,2.88
-1.360e-02,2.88
-1.340e-02,2.88
-1.320e-02,3.04
-1.300e-02,2.96
-1.280e-02,3.04
-1.260e-02,2.96
-1.240e-02,2.96
-1.220e-02,2.96
-1.200e-02,2.96
-1.180e-02,2.96
-1.160e-02,2.96
-1.140e-02,2.88
-1.120e-02,2.88
-1.100e-02,2.96
-1.080e-02,2.96
-1.060e-02,2.8
-1.040e-02,2.8
-1.020e-02,2.8
-1.000e-02,2.8
-9.800e-03,2.8
-9.600e-03,2.8
-9.400e-03,2.8
-9.200e-03,2.8
-9.000e-03,2.88
-8.800e-03,2.8
-8.600e-03,2.8
-8.400e-03,2.8
-8.200e-03,2.72
-8.000e-03,2.8
-7.800e-03,2.8
-7.600e-03,2.72
-7.400e-03,2.8
-7.200e-03,2.8
-7.000e-03,2.88
-6.800e-03,2.8
-6.600e-03,2.8
-6.400e-03,2.88
-6.200e-03,2.88
-6.000e-03,3.04
-5.800e-03,2.88
-5.600e-03,2.96
-5.400e-03,2.96
-5.200e-03,2.96
-5.000e-03,2.96
-4.800e-03,2.96
-4.600e-03,2.96
-4.400e-03,2.96
-4.200e-03,2.96
-4.000e-03,2.96
-3.800e-03,2.96
-3.600e-03,2.96
-3.400e-03,2.96
-3.200e-03,3.04
-3.000e-03,3.04
-2.800e-03,2.96
-2.600e-03,2.96
-2.400e-03,2.96
-2.200e-03,2.88
-2.000e-03,2.8
-1.800e-03,2.8
-1.600e-03,2.8
-1.400e-03,2.72
-1.200e-03,2.72
-1.000e-03,2.8
-8.000e-04,2.8
-6.000e-04,2.8
-4.000e-04,2.8
-2.000e-04,2.8
1.000e-15,2.8
2.000e-04,2.8
4.000e-04,2.8
6.000e-04,2.72
8.000e-04,2.8
1.000e-03,2.8
1.200e-03,2.8
1.400e-03,2.8
1.600e-03,2.96
1.800e-03,2.96
2.000e-03,2.8
2.200e-03,2.8
2.400e-03,2.88
2.600e-03,2.88
2.800e-03,2.96
3.000e-03,2.96
3.200e-03,2.96
3.400e-03,2.96
3.600e-03,3.04
3.800e-03,2.96
4.000e-03,3.04
4.200e-03,2.96
4.400e-03,2.96
4.600e-03,3.04
4.800e-03,3.04
5.000e-03,2.96
5.200e-03,2.96
5.400e-03,2.88
5.600e-03,2.88
5.800e-03,2.88
6.000e-03,2.96
6.200e-03,2.8
6.400e-03,2.8
6.600e-03,2.8
6.800e-03,2.8
7.000e-03,2.88
7.200e-03,2.88
7.400e-03,2.88
7.600e-03,2.8
7.800e-03,2.72
8.000e-03,2.8
8.200e-03,2.8
8.400e-03,2.8
8.600e-03,2.8
8.800e-03,2.8
9.000e-03,2.8
9.200e-03,2.88
9.400e-03,2.8
9.600e-03,2.96
9.800e-03,2.88
1.000e-02,2.88
1.020e-02,2.88
1.040e-02,2.88
1.060e-02,2.96
1.080e-02,2.96
1.100e-02,2.96
1.120e-02,2.96
1.140e-02,3.04
1.160e-02,3.04
1.180e-02,3.04
1.200e-02,3.04
1.220e-02,2.96
1.240e-02,3.04
1.260e-02,3.04
1.280e-02,3.04
1.300e-02,2.96
1.320e-02,2.96
1.340e-02,2.96
1.360e-02,2.96
1.380e-02,3.04
1.400e-02,2.96
1.420e-02,2.96
1.440e-02,2.88
1.460e-02,2.88
1.480e-02,2.8
1.500e-02,2.8
1.520e-02,2.88
1.540e-02,2.8
1.560e-02,2.88
1.580e-02,2.96
1.600e-02,2.96
1.620e-02,2.8
1.640e-02,2.8
1.660e-02,2.88
1.680e-02,2.8
1.700e-02,2.8
1.720e-02,2.8
1.740e-02,2.8
1.760e-02,2.8
1.780e-02,2.88
1.800e-02,2.8
1.820e-02,2.96
1.840e-02,2.96
1.860e-02,2.88
1.880e-02,2.88
1.900e-02,2.96
1.920e-02,2.96
1.940e-02,2.88
1.960e-02,3.04
1.980e-02,3.04
2.000e-02,3.04
2.020e-02,3.12
2.040e-02,3.04
2.060e-02,3.04
2.080e-02,2.96
2.100e-02,2.96
2.120e-02,2.96
2.140e-02,3.04
2.160e-02,3.04
2.180e-02,2.96
2.200e-02,2.96
2.220e-02,2.96
2.240e-02,2.96
2.260e-02,2.88
2.280e-02,2.88
2.300e-02,2.88
2.320e-02,2.88
2.340e-02,2.8
2.360e-02,2.88
2.380e-02,2.88
2.400e-02,2.88
2.420e-02,2.8
2.440e-02,2.8
2.460e-02,2.88
2.480e-02,2.8
2.500e-02,2.96
2.520e-02,2.88
2.540e-02,2.88
2.560e-02,2.88
2.580e-02,2.88
2.600e-02,2.8
2.620e-02,2.88
2.640e-02,2.88
2.660e-02,2.96
2.680e-02,2.96
2.700e-02,2.96
2.720e-02,3.04
2.740e-02,3.04
2.760e-02,2.96
2.780e-02,3.04
2.800e-02,3.04
2.820e-02,3.04
2.840e-02,3.04
2.860e-02,3.12
2.880e-02,3.12
2.900e-02,3.12
2.920e-02,3.04
2.940e-02,3.04
2.960e-02,3.04
2.980e-02,2.96
3.000e-02,3.04
3.020e-02,3.04
3.040e-02,3.04
3.060e-02,3.04
3.080e-02,3.04
3.100e-02,2.96
3.120e-02,2.96
3.140e-02,2.96
3.160e-02,2.88
3.180e-02,2.8
3.200e-02,2.88
3.220e-02,2.88
3.240e-02,2.88
3.260e-02,2.88
3.280e-02,2.88
3.300e-02,2.88
3.320e-02,2.88
3.340e-02,2.88
3.360e-02,2.8
3.380e-02,2.88
3.400e-02,2.88
3.420e-02,2.8
3.440e-02,2.96
3.460e-02,2.8
3.480e-02,2.96
3.500e-02,2.88
3.520e-02,2.96
3.540e-02,2.96
3.560e-02,2.96
3.580e-02,3.04
3.600e-02,2.96
3.620e-02,2.96
3.640e-02,2.96
3.660e-02,3.04
3.680e-02,3.04
3.700e-02,3.04
3.720e-02,3.12
3.740e-02,3.04
3.760e-02,3.04
3.780e-02,3.04
3.800e-02,3.04
3.820e-02,3.04
3.840e-02,3.04
3.860e-02,3.04
3.880e-02,3.04
3.900e-02,2.96
3.920e-02,2.96
3.940e-02,2.88
3.960e-02,2.88
3.980e-02,2.96
4.000e-02,2.8
4.020e-02,2.88
4.040e-02,2.88
4.060e-02,2.96
4.080e-02,2.88
4.100e-02,2.88
4.120e-02,2.88
4.140e-02,2.8
4.160e-02,2.8
4.180e-02,2.8
4.200e-02,2.8
4.220e-02,2.88
4.240e-02,2.88
4.260e-02,2.88
4.280e-02,2.88
4.300e-02,2.96
4.320e-02,2.96
4.340e-02,2.96
4.360e-02,2.96
4.380e-02,3.04
4.400e-02,3.04
4.420e-02,3.04
4.440e-02,2.96
4.460e-02,3.04
4.480e-02,3.04
4.500e-02,3.04
4.520e-02,3.12
4.540e-02,3.04
4.560e-02,3.04
4.580e-02,3.12
4.600e-02,3.04
4.620e-02,3.04
4.640e-02,3.04
4.660e-02,2.96
4.680e-02,2.96
4.700e-02,3.04
4.720e-02,2.96
4.740e-02,2.96
4.760e-02,3.04
4.780e-02,2.96
4.800e-02,2.88
4.820e-02,2.88
4.840e-02,2.8
4.860e-02,2.8
4.880e-02,2.88
4.900e-02,2.88
4.920e-02,2.88
4.940e-02,2.88
4.960e-02,2.88
4.980e-02,2.88
5.000e-02,2.8
5.020e-02,2.8
5.040e-02,2.88
5.060e-02,2.8
5.080e-02,2.88
5.100e-02,2.88
5.120e-02,2.96
5.140e-02,2.88
5.160e-02,2.96
5.180e-02,2.96
5.200e-02,3.04
5.220e-02,2.96
5.240e-02,2.96
5.260e-02,2.96
5.280e-02,2.96
5.300e-02,3.04
5.320e-02,2.96
5.340e-02,3.04
5.360e-02,2.96
5.380e-02,3.04
5.400e-02,3.04
5.420e-02,3.04
5.440e-02,3.04
5.460e-02,3.04
5.480e-02,3.04
5.500e-02,3.04
5.520e-02,2.96
5.540e-02,2.96
5.560e-02,2.96
5.580e-02,3.04
5.600e-02,2.96
5.620e-02,2.96
5.640e-02,2.88
5.660e-02,2.88
5.680e-02,2.88
5.700e-02,2.88
5.720e-02,2.96
5.740e-02,2.88
5.760e-02,2.88
5.780e-02,2.88
5.800e-02,2.88
5.820e-02,2.88
5.840e-02,2.8
5.860e-02,2.8
5.880e-02,2.8
5.900e-02,2.8
5.920e-02,2.88
5.940e-02,2.96
5.960e-02,2.96
5.980e-02,2.88
6.000e-02,2.96
6.020e-02,2.96
6.040e-02,2.96
6.060e-02,2.96
6.080e-02,2.96
6.100e-02,2.96
6.120e-02,3.04
6.140e-02,3.04
6.160e-02,3.04
6.180e-02,3.04
6.200e-02,3.12
6.220e-02,3.12
6.240e-02,3.04
6.260e-02,3.04
6.280e-02,3.04
6.300e-02,3.12
6.320e-02,3.04
6.340e-02,3.04
6.360e-02,3.12
6.380e-02,3.04
6.400e-02,2.96
6.420e-02,3.04
6.440e-02,2.96
6.460e-02,2.88
6.480e-02,2.96
6.500e-02,2.8
6.520e-02,2.88
6.540e-02,2.8
6.560e-02,2.88
6.580e-02,2.88
6.600e-02,2.96
6.620e-02,2.88
6.640e-02,2.8
6.660e-02,2.8
6.680e-02,2.8
6.700e-02,2.88
6.720e-02,2.88
6.740e-02,2.8
6.760e-02,2.96
6.780e-02,2.96
6.800e-02,2.96
6.820e-02,2.88
6.840e-02,2.96
6.860e-02,2.96
6.880e-02,2.96
6.900e-02,2.96
6.920e-02,2.96
6.940e-02,3.04
6.960e-02,3.04
6.980e-02,3.04
7.000e-02,3.04
7.020e-02,3.04
7.040e-02,3.04
7.060e-02,3.04
7.080e-02,3.12
7.100e-02,3.12
7.120e-02,3.04
7.140e-02,2.96
7.160e-02,3.04
7.180e-02,3.12
7.200e-02,3.12
7.220e-02,3.04
7.240e-02,2.96
7.260e-02,2.88
7.280e-02,2.88
7.300e-02,2.88
7.320e-02,2.88
7.340e-02,2.88
7.360e-02,2.88
7.380e-02,2.88
7.400e-02,2.96
7.420e-02,2.96
7.440e-02,2.88
7.460e-02,2.88
7.480e-02,2.96
7.500e-02,2.8
7.520e-02,2.8
7.540e-02,2.8
7.560e-02,2.96
7.580e-02,2.88
7.600e-02,2.88
7.620e-02,2.96
7.640e-02,2.96
7.660e-02,2.96
7.680e-02,2.88
7.700e-02,2.96
7.720e-02,2.96
7.740e-02,3.04
7.760e-02,3.04
7.780e-02,3.04
7.800e-02,3.04
7.820e-02,3.12
7.840e-02,3.04
7.860e-02,3.12
7.880e-02,3.04
7.900e-02,3.04
7.920e-02,3.04
7.940e-02,2.96
7.960e-02,3.04
7.980e-02,3.04
8.000e-02,3.12
8.020e-02,3.04
8.040e-02,3.12
8.060e-02,3.04
8.080e-02,3.04
8.100e-02,2.96
8.120e-02,2.96
8.140e-02,2.96
8.160e-02,2.88
8.180e-02,2.88
8.200e-02,2.8
8.220e-02,2.88
8.240e-02,2.88
8.260e-02,2.96
8.280e-02,2.96
8.300e-02,2.88
8.320e-02,2.88
8.340e-02,2.8
8.360e-02,2.8
8.380e-02,2.8
8.400e-02,2.88
8.420e-02,2.88
8.440e-02,2.88
8.460e-02,2.88
8.480e-02,2.96
8.500e-02,2.96
8.520e-02,2.96
8.540e-02,2.96
8.560e-02,2.88
8.580e-02,2.96
8.600e-02,2.96
8.620e-02,2.96
8.640e-02,2.96
8.660e-02,3.04
8.680e-02,3.04
8.700e-02,3.04
8.720e-02,2.96
8.740e-02,3.04
8.760e-02,3.12
8.780e-02,3.12
8.800e-02,3.12
8.820e-02,3.04
8.840e-02,3.04
8.860e-02,3.04
8.880e-02,3.04
8.900e-02,3.04
8.920e-02,2.96
8.940e-02,2.88
8.960e-02,2.88
8.980e-02,2.96
9.000e-02,2.8
9.020e-02,2.88
9.040e-02,2.8
9.060e-02,2.88
9.080e-02,2.96
9.100e-02,2.88
9.120e-02,2.88
9.140e-02,2.8
9.160e-02,2.8
9.180e-02,2.88
9.200e-02,2.88
9.220e-02,2.88
9.240e-02,2.8
9.260e-02,2.88
9.280e-02,2.88
9.300e-02,2.88
9.320e-02,2.96
9.340e-02,2.96
9.360e-02,3.04
9.380e-02,2.96
9.400e-02,2.96
9.420e-02,2.96
9.440e-02,3.04
9.460e-02,2.96
9.480e-02,2.96
9.500e-02,3.04
9.520e-02,3.04
9.540e-02,3.04
9.560e-02,3.04
9.580e-02,3.12
9.600e-02,3.04
9.620e-02,3.12
9.640e-02,3.12
9.660e-02,3.04
9.680e-02,3.04
9.700e-02,3.04
9.720e-02,3.04
9.740e-02,2.96
9.760e-02,3.04
9.780e-02,2.96
9.800e-02,2.96
9.820e-02,2.88
9.840e-02,2.8
9.860e-02,2.88
9.880e-02,2.88
9.900e-02,2.96
9.920e-02,2.96
9.940e-02,2.88
9.960e-02,2.88
9.980e-02,2.88

